food_intake,physical_activity,stress_level,sleep
usual,more,usual,usual
usual,less,usual,usual
usual,more,usual,usual
usual,more,usual,usual
usual,usual,usual,more
usual,usual,high,usual
usual,more,usual,usual
usual,more,usual,usual
usual,usual,usual,less
less,usual,high,usual
usual,more,usual,usual
usual,less,usual,less
usual,more,usual,usual
usual,usual,low,more
more,more,high,usual
usual,less,usual,usual
usual,usual,usual,less
more,more,low,more
less,more,usual,usual
less,usual,low,more
usual,more,low,usual
usual,more,low,usual
usual,more,usual,usual
less,usual,usual,more
usual,more,low,less
more,more,low,usual
more,usual,low,usual
less,more,usual,less
less,usual,usual,more
less,more,low,less
more,less,usual,more
usual,less,usual,usual
usual,usual,usual,more
usual,usual,usual,more
less,more,usual,less
more,more,usual,more
usual,usual,high,more
more,more,usual,more
usual,more,usual,usual
usual,less,usual,usual
usual,usual,low,usual
usual,more,usual,usual
less,less,high,usual
usual,more,low,more
usual,usual,usual,more
usual,usual,high,usual
usual,more,usual,usual
usual,usual,usual,less
usual,less,low,usual
more,less,low,usual
more,usual,low,usual
usual,usual,usual,more
usual,usual,high,usual
usual,more,usual,usual
usual,usual,usual,more
usual,usual,low,usual
usual,more,usual,less
usual,less,usual,usual
usual,less,usual,usual
usual,usual,usual,less
more,more,usual,usual
usual,usual,high,more
usual,usual,high,more
usual,usual,high,more
more,more,usual,usual
usual,more,usual,more
usual,less,usual,usual
usual,more,usual,usual
more,usual,low,usual
usual,usual,high,less
less,usual,usual,more
usual,more,usual,usual
usual,usual,high,usual
usual,usual,usual,more
usual,more,usual,more
usual,usual,usual,more
usual,usual,low,usual
usual,more,low,usual
usual,more,usual,usual
usual,usual,usual,more
more,more,usual,usual
usual,less,usual,usual
usual,usual,low,more
usual,usual,usual,less
usual,more,usual,usual
usual,more,usual,usual
usual,usual,low,usual
usual,less,usual,usual
usual,usual,usual,less
usual,more,low,usual
usual,usual,usual,more
more,more,low,more
less,more,low,usual
more,more,low,more
usual,more,low,more
usual,more,usual,more
more,usual,usual,less
usual,usual,high,usual
less,more,low,more
usual,less,usual,usual
usual,usual,high,usual
usual,more,low,more
more,more,usual,usual
usual,usual,high,usual
usual,more,high,usual
less,more,usual,usual
usual,more,high,usual
usual,usual,high,usual
usual,less,usual,less
usual,more,low,less
usual,usual,high,less
usual,more,low,more
more,usual,usual,more
usual,less,usual,usual
less,usual,usual,more
less,more,usual,usual
less,usual,usual,less
less,more,high,usual
usual,less,usual,usual
more,usual,low,more
usual,more,usual,usual
usual,usual,low,more
usual,more,low,usual
more,less,low,more
more,usual,usual,more
usual,less,usual,usual
usual,usual,low,usual
usual,less,usual,usual
more,more,usual,usual
usual,more,low,less
usual,more,low,usual
usual,less,low,usual
usual,more,low,more
less,usual,low,more
usual,usual,high,less
less,more,usual,less
more,usual,low,usual
usual,more,low,usual
usual,less,high,usual
usual,less,usual,less
less,more,usual,less
usual,more,usual,usual
usual,usual,low,usual
usual,usual,low,more
less,more,usual,usual
usual,more,usual,usual
usual,more,usual,usual
usual,more,usual,more
usual,usual,low,more
usual,usual,high,usual
more,more,high,usual
less,more,usual,more
usual,usual,high,usual
more,less,high,less
more,less,high,less
usual,less,usual,usual
usual,less,usual,usual
usual,more,usual,usual
less,usual,low,usual
less,more,usual,usual
more,more,high,usual
less,more,usual,usual
usual,usual,high,usual
usual,more,high,usual
usual,more,usual,usual
usual,less,usual,usual
usual,less,usual,usual
usual,more,usual,less
usual,usual,low,usual
usual,more,usual,less
usual,more,usual,less
usual,more,usual,more
usual,usual,usual,more
less,more,usual,usual
usual,usual,low,usual
usual,less,usual,usual
usual,usual,usual,more
more,usual,usual,more
usual,more,low,more
usual,usual,low,usual
usual,more,usual,less
more,usual,low,usual
usual,usual,usual,less
more,more,low,usual
less,more,usual,more
more,usual,usual,more
usual,more,usual,less
less,less,low,usual
usual,usual,usual,more
more,usual,low,usual
more,more,usual,less
usual,more,usual,usual
less,usual,low,more
more,usual,low,usual
usual,more,usual,more
usual,usual,usual,more
more,usual,low,usual
usual,less,usual,usual
usual,more,low,more
usual,more,low,usual
more,usual,low,more
usual,more,usual,more
usual,usual,usual,more
less,more,high,usual
less,more,low,less
usual,more,usual,more
more,more,usual,less
usual,usual,usual,less
usual,more,usual,usual
usual,usual,usual,less
usual,usual,usual,more
usual,usual,usual,less
more,more,usual,usual
usual,usual,low,usual
less,more,low,more
more,usual,high,usual
more,more,usual,more
usual,usual,usual,more
usual,usual,high,usual
more,usual,high,more
usual,usual,usual,less
less,usual,low,more
more,usual,high,usual
less,more,usual,less
less,less,usual,less
less,more,low,more
less,less,usual,more
usual,more,usual,usual
more,usual,high,usual
usual,more,usual,more
usual,usual,usual,more
less,usual,high,usual
usual,more,low,usual
less,more,low,more
more,usual,usual,more
usual,usual,high,usual
usual,more,low,more
less,more,high,usual
usual,less,usual,less
less,more,low,more
usual,more,low,more
usual,more,usual,usual
usual,usual,low,usual
usual,usual,low,usual
usual,usual,low,usual
less,usual,usual,less
usual,more,low,more
usual,usual,high,usual
usual,more,low,more
usual,usual,low,more
less,more,usual,usual
usual,usual,low,usual
less,less,usual,usual
usual,usual,usual,less
usual,more,high,usual
less,more,usual,less
usual,usual,usual,more
usual,more,high,usual
usual,more,high,usual
usual,usual,low,more
usual,usual,usual,less
more,more,low,usual
usual,more,low,more
usual,more,low,usual
less,more,low,usual
less,less,low,more
less,more,low,usual
usual,more,usual,usual
usual,usual,low,usual
usual,usual,low,usual
less,usual,low,usual
usual,more,usual,more
usual,usual,high,usual
usual,less,usual,usual
less,more,low,usual
usual,usual,low,usual
more,less,usual,usual
more,more,low,more
usual,more,high,usual
usual,usual,low,more
usual,more,usual,usual
less,more,usual,usual
usual,more,usual,more
usual,usual,low,usual
usual,less,low,more
usual,usual,high,usual
less,usual,high,more
usual,usual,low,usual
usual,usual,high,less
less,usual,low,more
usual,more,usual,usual
less,less,high,usual
less,more,high,usual
usual,less,usual,more
usual,less,high,less
usual,usual,high,usual
more,usual,high,usual
usual,more,usual,less
usual,more,high,usual
usual,usual,low,usual
usual,usual,usual,less
less,usual,low,more
usual,more,usual,usual
usual,usual,usual,less
more,more,high,less
usual,usual,usual,more
more,more,usual,usual
usual,more,usual,usual
less,less,usual,usual
usual,more,usual,usual
usual,more,usual,usual
usual,more,usual,less
less,less,usual,more
usual,usual,high,usual
usual,more,usual,usual
usual,more,usual,more
usual,more,usual,usual
more,less,low,more
usual,more,usual,more
usual,more,usual,usual
more,less,usual,more
usual,less,high,usual
less,more,usual,usual
usual,more,usual,usual
less,more,usual,usual
more,more,low,usual
usual,more,high,usual
more,more,low,less
usual,more,usual,usual
usual,more,high,usual
usual,usual,usual,less
less,less,high,less
usual,usual,usual,more
more,more,low,usual
usual,more,usual,usual
usual,less,usual,usual
usual,usual,high,usual
usual,less,usual,usual
usual,more,low,usual
usual,usual,low,usual
usual,more,high,usual
usual,usual,usual,less
usual,more,low,usual
more,more,usual,usual
less,more,usual,more
usual,usual,usual,more
usual,usual,low,usual
less,usual,high,usual
usual,more,usual,usual
usual,usual,usual,more
usual,usual,high,usual
usual,more,low,more
usual,usual,usual,more
more,usual,low,usual
usual,more,high,less
more,usual,low,usual
more,usual,high,less
usual,usual,usual,less
more,usual,low,usual
less,more,usual,more
more,more,usual,usual
usual,more,high,less
less,less,high,less
usual,usual,low,more
less,less,low,usual
more,usual,low,more
less,more,usual,usual
usual,usual,usual,less
usual,usual,usual,more
less,less,low,more
less,less,low,more
less,usual,usual,more
usual,less,usual,more
usual,usual,usual,more
usual,usual,high,usual
usual,usual,high,usual
usual,usual,high,usual
usual,usual,high,more
usual,usual,high,less
usual,usual,high,usual
less,usual,usual,more
usual,usual,low,usual
usual,usual,low,usual
usual,usual,usual,more
usual,less,usual,more
usual,usual,usual,less
usual,more,usual,usual
less,more,low,less
usual,usual,low,more
usual,usual,low,more
usual,more,usual,usual
usual,usual,usual,more
less,usual,low,usual
usual,usual,usual,less
usual,usual,usual,less
more,more,usual,usual
more,more,usual,usual
usual,usual,low,usual
usual,usual,low,usual
less,more,high,usual
less,less,high,less
usual,more,usual,usual
usual,more,usual,usual
less,more,low,usual
less,more,usual,usual
usual,usual,usual,less
usual,usual,low,usual
more,usual,low,more
usual,more,usual,usual
more,less,low,more
usual,usual,high,more
usual,more,high,less
usual,more,high,usual
less,more,high,usual
usual,usual,high,more
usual,usual,low,more
usual,more,usual,more
usual,usual,usual,more
less,more,high,less
more,more,low,more
usual,usual,high,more
usual,less,usual,usual
less,usual,high,usual
less,less,usual,usual
usual,more,high,usual
usual,more,usual,usual
more,more,usual,usual
usual,more,high,less
usual,less,usual,more
less,usual,low,usual
usual,more,low,usual
more,more,usual,more
usual,more,usual,usual
usual,more,usual,less
usual,more,usual,more
usual,more,usual,usual
usual,more,usual,less
more,more,usual,usual
less,usual,usual,less
usual,more,usual,usual
usual,more,usual,usual
more,usual,low,usual
usual,more,usual,usual
less,more,usual,usual
usual,usual,high,usual
usual,more,usual,usual
more,usual,low,usual
usual,more,usual,usual
more,more,usual,usual
usual,less,usual,usual
usual,more,usual,usual
usual,usual,high,usual
less,usual,usual,less
usual,less,usual,more
less,more,usual,more
usual,more,usual,usual
more,less,high,less
usual,usual,high,usual
less,usual,high,less
usual,usual,usual,less
usual,more,usual,usual
usual,less,high,less
usual,usual,high,usual
more,less,usual,more
usual,usual,high,more
less,usual,high,usual
usual,usual,low,usual
usual,usual,low,usual
usual,usual,low,usual
usual,more,usual,usual
usual,usual,high,usual
less,more,usual,more
usual,more,low,more
usual,usual,high,usual
more,more,usual,usual
usual,more,high,usual
usual,less,usual,usual
less,usual,usual,more
usual,usual,high,usual
more,usual,low,less
usual,usual,usual,more
less,more,high,usual
usual,more,usual,usual
less,usual,high,less
usual,usual,high,usual
usual,usual,usual,more
usual,usual,usual,more
usual,less,usual,usual
less,more,usual,more
usual,more,usual,usual
usual,less,usual,less
usual,usual,high,usual
usual,usual,high,usual
usual,more,usual,usual
usual,less,low,more
usual,more,usual,more
usual,more,usual,less
usual,more,usual,more
less,usual,usual,more
usual,more,usual,usual
usual,usual,low,more
usual,usual,high,usual
less,usual,low,less
less,less,low,usual
usual,usual,low,more
usual,more,usual,more
less,more,usual,usual
usual,more,low,less
usual,usual,usual,less
usual,usual,low,more
usual,usual,high,more
usual,usual,usual,more
usual,more,usual,usual
usual,less,usual,more
usual,usual,high,more
usual,more,low,usual
usual,usual,low,usual
more,more,usual,more
less,more,high,usual
usual,usual,low,usual
usual,usual,usual,more
usual,more,low,usual
less,more,usual,more
usual,usual,high,more
usual,more,high,usual
usual,more,high,usual
usual,usual,high,less
usual,usual,high,less
usual,usual,usual,more
usual,usual,high,less
usual,usual,usual,more
less,usual,usual,less
usual,less,low,usual
usual,less,high,usual
usual,more,low,more
less,usual,high,usual
usual,more,low,usual
usual,usual,low,less
usual,less,high,usual
less,usual,high,more
more,more,low,less
usual,more,usual,more
usual,usual,usual,more
usual,usual,usual,less
more,less,usual,less
usual,usual,high,less